D00002	5893
D00006	38882
D00008	784
D00015	5961
D00018	54670067
D00028	753
D00029	171548
D00036	936
D00037	311
D00048	863
D00050	493570
D00062	6251
D00086	864
D00088	5754
D00095	5816
D00096	5780
D00109	2244
D00113	174174
D00122	6441383
D00129	5280453
D00138	153311
D00147	154417
D00152	359
D00157	128229
D00163	10133
D00165	5744
D00170	5280567
D00187	5280793
D00188	5280795
D00193	131204
D00201	54675776
D00202	11953884
D00203	5280965
D00212	14969
D00216	41774
D00219	1989
D00244	9782
D00245	2391
D00246	5281004
D00271	2727
D00274	2769
D00282	2812
D00292	5743
D00295	2756
D00299	5311071
D00305	23673837
D00306	16078
D00307	54684461
D00318	5702160
D00335	3478
D00336	3488
D00352	11333
D00355	3883
D00367	4020
D00377	4075
D00379	5503
D00380	5505
D00385	31307
D00389	6300
D00395	5591
D00409	4173
D00416	4189
D00419	5282381
D00422	3001055
D00440	3033637
D00444	25249
D00448	5339
D00455	4594
D00456	4595
D00462	5878
D00472	5755
D00473	5282382
D00481	9279
D00490	5281034
D00526	27503
D00540	11693
D00593	3476
D00594	65981
D00595	2468
D00596	5281055
D00625	441314
D00673	3033332
D00677	6918003
D00678	59774
D00689	21700
D00717	441344
D00719	23724783
D00720	6461
D00721	5883
D00723	20298
D00724	14720269
D00725	441346
D00726	4168
D00727	135413505
D00729	71420
D00731	14791
D00734	31401
D00850	54685925
D00858	9552081
D00866	441374
D00868	441375
D00882	68553
D00884	72734318
D00926	21733101
D00931	6116
D00932	10112
D00934	62859
D00935	9290
D00936	5282393
D00937	104805
D00938	24456
D00943	5235
D00944	14219
D00945	60560
D00955	9677
D00956	229455
D00972	65478
D00975	16961
D00976	223253
D00977	441406
D00978	23694214
D00980	5834
D00981	441409
D00982	93055
D00983	6436
D00984	6216
D00985	21826
D00996	441411
D01003	101587
D01005	6284
D01006	66061
D01077	657381
D01081	62640
D01082	443753
D01108	24843
D01111	5311309
D01131	5282136
D01149	68952
D01165	8520
D01167	14792
D01191	26391
D01201	72142
D01207	10959536
D01222	22230
D01225	9068
D01234	4677
D01255	3032771
D01297	71405
D01298	16760467
D01301	248271
D01306	5597
D01319	20055424
D01345	9571016
D01350	19648
D01356	23672378
D01357	16533
D01365	5536
D01375	252372
D01377	20749
D01402	443967
D01406	443968
D01410	65464
D01414	13765
D01442	16623
D01446	71376
D01451	656587
D01467	56704
D01476	101905
D01500	5388977
D01510	23672582
D01518	5282181
D01529	22788049
D01530	27990
D01532	31799
D01542	24762
D01561	23681127
D01584	2194
D01588	10866
D01599	3475
D01612	5282431
D01615	63044
D01616	23694217
D01619	26133
D01622	23666409
D01632	63049
D01637	21800
D01642	16683874
D01648	23724526
D01650	8589
D01665	444020
D01721	6518
D01732	24436
D01735	86472
D01737	111318
D01742	42503
D01745	3151
D01798	135409471
D01813	3720
D01818	4922
D01828	2161
D01854	6918235
D01886	636398
D01891	5311225
D01899	636402
D01913	92140
D01942	5977
D01948	63047
D01976	23724825
D01984	21121303
D01998	5282229
D02012	16685684
D02026	92912
D02030	656657
D02032	71470
D02039	3067270
D02041	656664
D02056	5234
D02057	313
D02060	4873
D02069	656678
D02071	656679
D02077	516893
D02092	656684
D02094	6202
D02122	54704426
D02129	54686183
D02130	656665
D02149	5815
D02156	656804
D02171	656822
D02174	656823
D02176	10917
D02179	6019
D02206	84976
D02213	656838
D02218	6084
D02254	165341
D02255	54682468
D02256	24844
D02286	5282492
D02288	5282494
D02293	54682536
D02323	53359
D02332	2116
D02390	443445
D02397	165268
D02414	517000
D02416	6328211
D02425	9564
D02427	33649
D02430	91610
D02437	5324
D02440	4806
D02447	8308
D02535	11954250
D02554	6436173
D02571	64765
D02589	196639
D02591	656777
D02592	656778
D02593	11954257
D02712	6918582
D02715	135414247
D02730	135413539
D02774	7436
D02807	6328660
D02821	71749
D02829	60758
D02862	64655
D02877	21718
D02878	5488547
D02968	135413536
D03011	6419888
D03088	66247
D03101	5280489
D03103	11545
D03262	441374
D03265	6099959
D03277	10762
D03281	11954332
D03294	6093269
D03300	8714
D03301	5284612
D03302	24441
D03303	14781
D03309	14941
D03370	174
D03463	11954347
D03477	54715349
D03495	6918107
D03496	11360816
D03503	50963
D03534	2780
D03634	6058
D03713	66264
D03801	91442
D03809	34328
D03814	656597
D03824	5744890
D03827	23697815
D03860	6432394
D03903	54697786
D03904	54723873
D04028	3034010
D04056	23674541
D04148	91452
D04370	5284566
D04467	219121
D04479	9929278
D04713	157836
D04790	157920
D04834	643991
D04835	17749133
D04868	17683
D04893	21776
D04966	4091
D05008	441347
D05010	26388
D05016	68592
D05017	51794
D05032	51634
D05045	54675783
D05099	5284592
D05116	164526
D05140	8378
D05177	115355
D05181	3032790
D05241	23257
D05259	130564
D05261	23681230
D05276	11954384
D05320	8269
D05321	1923
D05343	6918303
D05353	4679
D05456	4764
D05458	4771
D05459	70969
D05463	23724989
D05489	9904352
D05535	11017
D05578	2735208
D05644	8590
D05674	10360683
D05699	3033887
D05725	23687712
D05731	104850
D05853	23666832
D05864	24266
D05868	5258
D05869	61488
D05877	62649
D05919	24550
D06056	135409453
D06171	15052414
D06174	71406
D06177	23690448
D06216	16147
D06371	62639
D06389	61456
D06408	2724192
D06418	174
D06419	174
D06420	174
D06421	174
D06423	174
D06521	24261
D06522	24261
D06543	445354
D06553	16088021
D06574	11686295
D06618	5361917
D06645	11591741
D06877	5748
D06878	6126
D07060	5315
D07066	23695970
D07068	3607
D07069	29563
D07070	71489
D07072	10203245
D07073	15159004
D07075	14652
D07076	5902
D07078	24892842
D07079	165124
D07080	6918537
D07081	6066
D07083	72092
D07084	657306
D07087	42262
D07088	1712095
D07089	70882
D07091	197785
D07092	22262
D07093	71636
D07094	40703
D07095	72098
D07097	15605556
D07098	65709
D07099	10048741
D07101	2446
D07102	135413504
D07103	165565
D07104	72065
D07105	14520
D07107	2950
D07108	12598458
D07109	2453
D07110	1985
D07111	5337997
D07113	71421
D07114	9982
D07115	71675
D07117	11259
D07118	32778
D07127	5858
D07128	9865603
D07129	2099
D07130	121396
D07175	6337614
D07192	2318
D07251	9571044
D07425	4680
D07440	3678
D07444	7029
D07456	10635
D07467	165580
D07477	3000668
D07488	54585
D07495	20469
D07508	198015
D07516	12555
D07517	173701
D07523	247
D07524	104358
D07525	11209085
D07531	28689
D07539	2723891
D07560	66136
D07563	135497066
D07575	54740489
D07579	6247
D07580	44219
D07581	8591
D07582	23666729
D07586	24892859
D07587	10101269
D07592	24892860
D07615	636403
D07627	441457
D07628	92920
D07668	9552079
D07669	9562059
D07689	54675777
D07753	2882
D07796	236702
D07797	16752
D07798	23667620
D07799	20055086
D07800	5284540
D07801	63038
D07802	9400
D07805	66265
D07820	3042
D07821	21788
D07861	13505
D07867	3148
D07868	6604595
D07876	54671203
D07877	54685920
D07879	6437861
D07891	21777
D07917	9568614
D07945	3337
D07951	71534
D07994	197162
D08079	892
D08144	3955
D08160	4031
D08193	3037705
D08214	83213
D08238	70881
D08250	9904
D08251	94371
D08263	14559042
D08266	157355
D08295	22419
D08325	4642
D08326	31315
D08351	8249
D08352	13266
D08369	3084044
D08378	4829
D08382	4839
D08389	4848
D08409	5881
D08412	10095005
D08413	23675004
D08414	23671896
D08415	71206
D08416	91438
D08454	1054
D08463	5029
D08464	107751
D08491	77999
D08494	91276
D08495	5105
D08505	135398654
D08513	5210
D08515	31553
D08516	4369359
D08531	19649
D08580	6042
D08581	10761
D08608	134448
D08610	162955
D08612	20353
D08639	5573
D08903	9578005
D08996	11243969
D09000	24243
D09205	3052762
D09339	23672364
D09566	10096344
D09739	53297469
D00009	5793
D00011	750
D00023	1176
D00042	71449000
D00070	135398658
D00106	5280427
D00148	5280483
D00160	564
D00166	24892734
D00181	92721
D00302	3108
D00396	6503
D00564	16204922
D00769	115366
D00856	11478
D00862	5447130
D00870	5328
D01027	11953898
D01028	65335
D01029	60946
D01062	22324
D01126	66250
D01136	5526
D01139	25517
D01154	517044
D01194	6433164
D01203	516892
D01248	165457
D01280	23706212
D01282	17506
D01337	23695838
D01525	135524781
D01551	23676207
D01725	62662
D01766	5284360
D01779	23665404
D01781	71474
D01844	636380
D01864	2557
D01896	2754
D01981	9574101
D02058	5727
D02304	5962
D02335	4055
D02394	198008
D02464	170848
D02707	11954268
D02720	5282428
D02721	5311181
D03246	11954324
D03383	31294
D03385	21975
D03798	54676038
D03978	135449331
D04172	62712
D04836	23724945
D04929	23724950
D05457	54680692
D05597	10158453
D05855	6224
D06213	6918140
D06483	85880
D06888	123610
D07064	54676537
D07082	10439877
D07086	9875401
D07131	54685524
D07135	70846
D07136	6719
D07137	54708299
D07138	29088
D07139	68876
D07140	4814
D07141	107641
D07142	9458
D07143	183797
D07144	9578572
D07145	27461
D07146	29566
D07426	5251503
D07568	65526
D07606	2536
D07666	2683
D07729	60606
D07736	16219127
D07985	135425254
D08015	10464762
D08016	167159
D08065	46174092
D08177	23665888
D08354	4760
D08594	5472
D08607	60947
D08628	23663413
D08682	54678486
D09017	9871419
D00033	996
D00045	60961
D00049	938
D00076	439260
D00098	2537
D00112	439501
D00114	5984
D00124	9294
D00126	3672
D00141	3715
D00178	102484
D00180	5280723
D00190	16218542
D00197	5770
D00198	5280954
D00199	441080
D00231	3698
D00235	2249
D00247	2471
D00251	44093
D00255	2585
D00272	2732
D00279	2796
D00281	2803
D00286	2893
D00294	3019
D00297	441207
D00298	2724385
D00303	3114
D00313	3278
D00319	3333
D00325	9642
D00331	3440
D00334	3463
D00340	3639
D00345	3702
D00349	3784
D00357	11751549
D00358	3676
D00359	53232
D00362	5362118
D00378	62933
D00382	41781
D00383	5484727
D00386	5546
D00400	60846
D00405	38852
D00417	4197
D00418	4201
D00421	5362129
D00431	4170
D00432	39147
D00434	54454
D00437	4485
D00438	4497
D00443	5833
D00459	54891
D00461	6307
D00476	4912
D00477	66068
D00483	62882
D00501	4740
D00507	5284441
D00509	91430
D00511	5284443
D00513	4828
D00515	4510
D00516	6883
D00519	2720
D00522	2541
D00523	3749
D00551	5411
D00552	2337
D00565	3339
D00597	441307
D00598	107952
D00599	40127
D00600	71412
D00601	441308
D00602	38010
D00603	5281056
D00604	20179
D00606	71401
D00608	62978
D00609	68546
D00611	13221
D00612	441310
D00613	49659
D00614	11953895
D00615	60496
D00616	62920
D00617	41114
D00618	4499
D00619	62969
D00620	5362123
D00621	5388961
D00622	23667962
D00623	54889
D00624	441313
D00626	2540
D00627	65999
D00629	4507
D00630	27661
D00631	91725
D00632	65324
D00633	65340
D00634	5281064
D00635	62937
D00636	441325
D00637	30928
D00638	41022
D00639	21467
D00640	36708
D00642	64642
D00643	64641
D00644	104769
D00645	6100
D00647	71329
D00648	5281065
D00649	68540
D00650	2315
D00654	3647
D00656	4121
D00657	4870
D00658	5560
D00733	3025
D00739	73957
D00740	5795
D00741	8695
D00762	441350
D00887	60822
D00889	23663992
D00892	23679527
D00893	16759173
D00997	6048
D01018	71611
D01019	441414
D01020	6081
D01026	66245
D01041	442965
D01065	5281915
D01069	56329
D01095	25145
D01104	443868
D01115	443872
D01119	443873
D01122	3673
D01135	8395
D01152	4621
D01173	5282138
D01182	66368
D01197	5282403
D01204	130881
D01208	16683028
D01212	5217
D01213	443894
D01220	5531
D01227	185462
D01233	5489012
D01236	216322
D01238	23663967
D01240	28620
D01256	2910
D01290	34040
D01302	9351
D01304	71926
D01307	18340
D01320	5353788
D01326	71413
D01333	5639
D01366	39042
D01367	9878
D01369	39324
D01379	5284613
D01386	65326
D01390	5807
D01405	3016408
D01419	7191
D01436	16473
D01440	102220
D01445	656586
D01454	27072
D01455	57952
D01471	175540
D01543	5702098
D01549	5485193
D01553	150762
D01565	5282183
D01571	6420039
D01573	164652
D01603	8248
D01605	4165
D01606	83201
D01634	4849
D01667	5362115
D01673	21955
D01741	42373
D01748	11368
D01754	4476
D01756	11498
D01794	636368
D01804	2515
D01806	71172
D01810	47528
D01812	9800972
D01822	69594
D01825	6215
D01833	6237
D01840	163751
D01849	157917
D01862	5282451
D01877	4047
D01908	4494
D01915	5282455
D01943	23671691
D01944	5282458
D01966	150311
D01969	119442
D01972	656630
D01993	24750
D02045	656667
D02061	2904
D02066	656677
D02082	5282474
D02084	656683
D02085	172293
D02086	6314
D02087	34632
D02088	108173
D02110	23674731
D02150	656783
D02167	65557
D02237	65328
D02239	442964
D02258	656846
D02272	64640
D02276	5282489
D02300	5282498
D02338	1978
D02342	2405
D02356	2520
D02358	4171
D02363	3822
D02383	9801
D02386	38409
D02460	12492
D02537	208898
D02564	9373
D02587	11954256
D02631	11954260
D02705	5282234
D02742	17513
D02769	6083
D02910	2157
D02914	6435922
D02939	5890
D02969	2218
D02976	166551
D03115	23724856
D03208	5493444
D03363	13789
D03415	11954344
D03450	66383
D03471	23675744
D03487	54910
D03492	2747
D03507	6434394
D03521	2763
D03664	11391
D03750	23677961
D03752	54892
D03753	107807
D03765	6850814
D03767	3033690
D03830	3037122
D03879	36811
D03880	3038222
D03881	208850
D03891	55483
D03892	68603
D03914	219025
D03991	48040
D03994	47607
D04004	53708
D04018	5359318
D04040	5281037
D04051	5284553
D04079	23668825
D04111	5384145
D04161	68548
D04195	4474062
D04218	9053
D04219	20054915
D04221	240767
D04382	86471
D04386	21124335
D04398	9567831
D04399	23724918
D04438	5777
D04488	68555
D04490	16683040
D04492	20056986
D04531	33625
D04532	38102
D04657	5311217
D04720	3033825
D04733	3926
D04774	20057015
D04778	6917855
D04825	3270262
D04897	1662
D04991	7151
D05011	6440651
D05024	60662
D05077	34633
D05087	4810
D05093	41386
D05107	312915
D05127	9844194
D05158	7510
D05206	3047796
D05442	5284439
D05482	55329
D05587	4883
D05606	43590
D05627	66261
D05700	56959
D05701	71279
D05711	219024
D05967	657255
D06010	60919
D06102	41109
D06172	38945
D06234	64749
D06328	155774
D06329	6440459
D06334	9912
D06341	26618
D06392	230921
D06401	23725081
D06412	6918427
D06534	18417210
D06606	9841440
D06622	11626384
D06646	72014
D06652	65825
D06653	11498917
D06665	9930048
D06881	5284512
D06882	23665772
D07077	6918493
D07147	65598
D07148	7172
D07149	31513
D07150	219105
D07151	71740
D07155	71857
D07156	2119
D07157	26000
D07158	3590
D07159	27501
D07160	71132
D07161	5219
D07162	23342
D07164	71264
D07165	132999
D07166	71798
D07167	20054848
D07168	72138
D07169	36054
D07170	10230
D07171	216235
D07172	71652
D07173	10444661
D07174	70569
D07176	2467
D07177	30949
D07178	8966
D07179	9852585
D07180	5486699
D07181	71698
D07182	36920
D07183	65814
D07184	68770
D07185	3336
D07186	68671
D07187	65777
D07188	160134
D07189	25495
D07190	5310993
D07191	23403
D07427	29963
D07428	36131
D07447	16231
D07450	2162
D07474	60823
D07490	2292
D07494	443869
D07499	5362124
D07500	2312
D07509	656668
D07520	2351
D07526	2369
D07537	44112
D07538	104865
D07546	9687
D07548	37170
D07551	4567
D07555	11765960
D07590	2475
D07619	12604
D07624	2583
D07660	2663
D07661	446156
D07697	54909
D07699	56330
D07724	24892865
D07748	151171
D07781	5362116
D07830	81764
D07833	444034
D07834	107715
D07843	3074
D07845	39186
D07858	5281613
D07870	681
D07874	3157
D07892	5388962
D07894	48041
D07916	59768
D07922	3275
D07931	3306
D07941	3547
D07943	5702162
D07946	3341
D07962	3356
D07973	119871
D07983	1548972
D07992	6708482
D07999	23673593
D08001	46174084
D08009	1234
D08020	42884
D08030	3518
D08031	3519
D08037	46174091
D08038	10969
D08044	3637
D08057	156320
D08058	9864669
D08059	5338317
D08060	60753
D08064	3689
D08068	5464343
D08074	37464
D08090	3779
D08092	3783
D08093	94035
D08095	3045381
D08099	16219944
D08106	3869
D08111	65866
D08127	16219577
D08131	5362119
D08146	3961
D08155	4008
D08180	3677
D08192	5906
D08194	8550
D08201	6082
D08205	38853
D08212	37264
D08215	4178
D08217	60663
D08220	4195
D08225	91270
D08239	4260
D08243	71688
D08244	4417
D08254	47608
D08270	4474
D08271	46174096
D08284	11672905
D08286	4538
D08308	101532
D08309	42609626
D08311	84105
D08318	4631
D08321	5489013
D08340	4746
D08358	4768
D08362	5775
D08365	6041
D08366	46174104
D08407	4886
D08410	54687
D08411	4893
D08421	4913
D08422	4914
D08435	4932
D08443	4946
D08453	4688
D08458	5953
D08459	64644
D08482	68712
D08492	446157
D08499	5280805
D08517	46174111
D08525	5253
D08529	5311447
D08566	443874
D08572	161777
D08600	33624
D08614	5504
D08619	46174116
D08642	21109
D08662	167980
D08663	23690449
D08676	71203
D08677	15376
D08678	165895
D08688	92400
D08735	442151
D08890	11350701
D08892	153994
D08966	46174134
D09038	6324659
D00024	402
D00054	135398641
D00068	702
D00073	785
D00094	444795
D00097	338
D00104	5959
D00107	5282315
D00108	807
D00133	5054
D00137	3776
D00139	4114
D00140	12560
D00156	10114
D00164	5280531
D00205	54680691
D00209	441140
D00213	23672955
D00222	135398513
D00233	2202
D00277	446598
D00290	54686764
D00300	3100
D00316	5282375
D00321	57363
D00322	3365
D00323	3366
D00328	15209
D00339	3561
D00342	5905
D00348	5282379
D00351	47576
D00372	5430
D00381	5510
D00407	6741
D00433	441244
D00480	6014
D00494	4927
D00566	16760658
D00592	2955
D00666	23724780
D00669	8980
D00690	441336
D00728	16682734
D00751	23680530
D00770	2724
D00802	2406
D00810	54686350
D00829	441361
D00851	441371
D00859	3598
D00861	441373
D00864	16684434
D00865	38351
D00881	68589
D00883	5281098
D00885	9556529
D00886	65495
D00890	5482
D00903	23667642
D00904	5018304
D00979	5877
D01034	5585
D01046	11057
D01047	5340
D01072	443382
D01073	443385
D01076	446596
D01093	443867
D01094	13916
D01112	60164
D01124	11179
D01125	5288783
D01132	5381
D01140	8478
D01143	14668
D01166	25590
D01242	63030
D01266	443936
D01272	32798
D01273	71386
D01308	443943
D01327	71414
D01335	67686
D01343	5282414
D01361	443953
D01364	38911
D01384	5506
D01387	443958
D01429	214356
D01458	5282176
D01464	443980
D01472	9910819
D01480	159968
D01516	5282180
D01575	10649
D01596	54680782
D01621	638034
D01664	3036590
D01702	8707
D01708	444036
D01711	23665760
D01720	54259
D01730	24470
D01764	91670
D01768	6420040
D01775	2378
D01801	6136
D01820	636374
D01905	24085
D01910	6374
D01938	3005837
D01990	16052038
D01995	135449284
D02009	71469
D02053	516875
D02091	9066
D02124	135524782
D02132	16051951
D02159	5634
D02164	14250
D02184	12559
D02185	656833
D02195	5282317
D02219	5282481
D02287	5282493
D02308	444972
D02351	3998
D02375	1549008
D02393	5055
D02419	24098
D02435	5325
D02445	3641960
D02456	978
D02476	54676539
D02477	54676538
D02500	57469
D02523	5284554
D02524	16051953
D02525	71277
D02543	37768
D02557	71821
D02582	51755
D02583	51754
D02754	5284513
D02815	449171
D02845	24564
D02905	8643
D02906	23663628
D02907	517441
D02923	54260
D03034	2266
D03093	7187
D03127	21719
D03135	22882
D03145	11954310
D03290	23724861
D03315	14865
D03325	9893453
D03360	9892949
D03454	5974
D03473	2723
D03488	2749
D03535	6337863
D03538	2788
D03541	11954353
D03680	54680690
D03696	5311066
D03697	5311067
D03812	11954369
D03813	66381
D03854	174697
D03884	12620
D03936	3198
D03956	66377
D04054	20055320
D04201	20054914
D04208	16490
D04217	15942715
D04225	66257
D04281	3000226
D04409	6918178
D04624	3760
D04636	15029724
D04815	23724941
D04926	9015
D04934	23724951
D05000	16923
D05001	21115
D05002	23663977
D05072	7638
D05082	6314185
D05225	5355130
D05322	54710745
D05407	135398748
D05465	16682924
D05480	6509979
D05529	10607
D05601	6714002
D05660	5284451
D05720	23725003
D05815	24087
D05840	23035113
D06139	6258
D06226	5564
D06246	197066
D06315	9854489
D06661	9883104
D06876	68921
D06883	65863
D07116	5311000
D07193	3401
D07194	27901
D07195	25295
D07196	72141
D07197	72075
D07198	6475
D07199	64377
D07200	65050
D07201	11794741
D07202	9846332
D07203	63019
D07204	11974
D07205	64949
D07206	65130
D07207	24892845
D07208	6301
D07209	16684591
D07210	8753
D07211	72139
D07212	667491
D07213	5280933
D07214	5803
D07215	65784
D07492	121417
D07493	11462853
D07521	2355
D07596	2484
D07664	2681
D07672	8154
D07674	83945
D07675	656580
D07676	11346885
D07679	80311
D07684	11223
D07715	5311051
D07717	71387
D07719	5311052
D07813	16735405
D07816	3033
D07817	115087
D07818	114753
D07819	46174077
D07822	23558
D07827	71415
D07853	21855
D07883	3009
D07909	83938
D07910	71276
D07972	22875828
D07980	9980241
D07981	5311101
D08000	46174083
D08003	46174085
D08013	3467
D08091	3781
D08183	4992
D08184	162821
D08227	441335
D08245	47641
D08296	3033988
D08313	5353853
D08319	4633
D08432	6441486
D08436	67413
D08462	6857
D08477	6394572
D08510	200103
D08535	5318
D08543	5333
D08554	5283734
D08556	445643
D08587	5457
D08645	5587
D08652	170532
D08660	5311167
D08768	71449006
D08894	20346078
D00010	176
D00066	5994
D00067	5870
D00075	6013
D00079	5280360
D00081	5280363
D00105	5757
D00111	612
D00118	156391
D00182	6230
D00185	5756
D00220	1990
D00269	11289
D00289	28417
D00312	23667301
D00327	6446
D00408	6010
D00465	4634
D00554	5991
D00577	448537
D00581	3728
D00585	55245
D00610	63016
D00646	443879
D00680	5281072
D00682	5281074
D00718	441345
D00722	91505
D00780	31100
D00830	5323714
D00880	47471
D00888	441383
D00898	667476
D00946	3032325
D00949	169870
D00950	13109
D00951	6279
D00952	11683
D00953	5832
D00957	441404
D00958	9416
D00959	5995
D00962	6420009
D00970	23681059
D00987	54746
D01007	441412
D01024	5362376
D01043	679
D01050	6433427
D01103	107979
D01127	3034019
D01148	443878
D01159	443881
D01163	6437065
D01217	9051
D01263	31728
D01269	216457
D01281	2898
D01294	9270
D01299	9324
D01348	443951
D01352	5282415
D01368	9880
D01374	235905
D01413	13791
D01428	5702161
D01462	5282421
D01580	5857
D01617	8225
D01639	444008
D01692	71764
D01699	444030
D01829	5282200
D01873	23479
D01921	66445
D01953	222757
D01965	5312125
D01986	102232
D01989	656637
D02004	107882
D02008	110635
D02073	5282237
D02199	23674995
D02217	54900
D02229	135413523
D02343	5281075
D02359	33572
D02367	40973
D02725	5312153
D02731	135414253
D03008	68613
D03028	6436171
D03062	154256
D03165	31101
D03260	135413545
D03269	11954327
D03399	5283105
D03462	21782
D03649	71352
D03654	444031
D03820	6918296
D04021	244809
D04061	9818306
D04063	9403
D04064	21070
D04065	19135
D04104	6917715
D04157	3343
D04317	27812
D04672	23724939
D04885	9949848
D04947	15020
D05274	28061
D05450	8691
D05460	8609
D05679	18142
D06085	68644
D06086	9931194
D06087	65157
D06671	6169
D07124	2092
D07216	68780
D07217	3086401
D07218	28693
D07219	68869
D07220	13313
D07221	9883915
D07222	68783
D07223	93057
D07224	71820
D07225	71679
D07226	6918558
D07430	6446788
D07460	6005
D07598	47472
D07670	5284533
D07726	1548953
D07766	5284537
D07826	3034148
D07905	443884
D07906	8223
D07918	154274
D07919	66440
D07920	10577
D07921	164538
D07928	68582
D07939	14687
D07961	3354
D08052	6238
D08053	941394
D08132	28864
D08166	10631
D08167	19090
D08207	8226
D08281	91668
D08285	229295
D08346	4756
D08431	36709
D08441	4942
D08457	3086400
D08465	5035
D08514	135398744
D08522	154059
D08532	11439
D08560	129211
D08569	5401
D08573	155143
D08574	14743
D08668	135400189
D08685	8969
D08923	9849808
D09567	13559281
D09687	130904
D00089	439302
D00249	16129616
D00284	16129617
D00291	27991
D00366	5772
D00401	1349907
D00442	383414
D00562	657298
D00930	5281104
D00973	5745
D00986	225609
D00988	23624131
D00990	25084011
D01009	5281107
D01010	23667619
D01011	23666110
D01180	656583
D01229	443928
D01685	25078429
D02105	71449001
D02116	126970648
D02117	16133753
D02235	64759
D02250	441258
D02369	25077993
D03267	56841073
D03504	156419
D03505	156418
D03561	5284535
D03594	66249
D03671	189821
D03698	5952
D03699	11876263
D04302	23724914
D04361	72734334
D05230	11979378
D05729	5311412
D06281	71306
D06495	383413
D06672	72081
D06673	5284587
D07227	24892846
D07228	8229
D07229	10440987
D07230	20055008
D07231	667493
D07232	516900
D07464	5875
D07519	198125
D07616	31072
D07665	25074887
D07749	222786
D07792	6166
D07967	31378
D08010	16130957
D08027	638793
D08241	25077649
D08509	16129620
D08571	72734347
D08659	67532
D00063	36294
D00144	1046
D00145	5578
D00162	4649
D00183	4421
D00186	2764
D00204	6249
D00210	4539
D00211	135398735
D00223	3000540
D00229	62883
D00230	23695837
D00240	135398736
D00256	51039
D00257	47965
D00258	5362065
D00259	43507
D00260	53025
D00261	6436628
D00262	5479529
D00263	27447
D00264	38103
D00273	60933
D00276	84029
D00278	2794
D00285	358641
D00296	135398739
D00310	3229
D00317	3324
D00333	135398740
D00346	3767
D00350	55283
D00353	60825
D00393	4101
D00398	135398741
D00406	32326
D00412	24066
D00413	35370
D00423	37542
D00424	135398743
D00427	392622
D00429	441243
D00435	4463
D00439	6604200
D00445	18283
D00447	5329
D00450	5344
D00453	4583
D00466	23666879
D00497	23676814
D00578	71616
D00579	44561
D00587	5215
D00588	3033924
D00589	5282384
D00590	60464
D00591	2761171
D00660	123630
D00849	54685047
D00854	23724510
D00855	21945
D00867	62115
D00869	30971
D00872	2762
D00873	68624
D00874	101526
D00875	16211148
D00877	6234
D00878	14051
D00879	135403821
D00891	441384
D00894	65016
D00895	441386
D00896	64139
D00897	5462355
D00899	64142
D00900	78000
D00901	15165
D00902	60855
D00905	23675322
D00907	23675321
D00908	23675312
D00909	23665731
D00910	42008
D00911	23666711
D00912	43593
D00913	23667300
D00914	6321416
D00915	23670318
D00916	5284584
D00917	6915944
D00918	23663974
D00919	10695961
D00920	6526396
D00921	6536864
D00922	5282242
D00923	23663938
D00924	11953897
D00925	10199068
D00927	441398
D00929	23694213
D00947	441401
D01052	9571080
D01053	23664709
D01057	71339
D01074	443387
D01075	5773
D01078	22525209
D01079	54686904
D01080	21585658
D01142	5323
D01144	443877
D01153	65957
D01157	9571075
D01160	60934
D01178	23675317
D01195	666418
D01199	60877
D01216	9047
D01235	5282165
D01249	23706211
D01251	23565
D01262	23668837
D01276	158550
D01283	23676503
D01322	202225
D01339	5282169
D01401	11954008
D01407	27200
D01415	175647
D01425	92727
D01426	5479
D01431	4855
D01486	54691354
D01489	443984
D01499	115162
D01501	9568684
D01517	23688977
D01523	175989
D01526	5343
D01528	5284529
D01531	153398
D01628	6437877
D01629	5489410
D01636	5282188
D01649	23682190
D01655	60871
D01668	5282436
D01680	5282437
D01710	6915744
D01716	3357
D01739	11954009
D01753	636364
D01819	47896
D01826	636375
D01836	636377
D01863	9852176
D01897	5282211
D01904	23663969
D01937	636424
D01954	5335
D01982	6398764
D02002	23724827
D02005	656644
D02119	23663979
D02121	5282241
D02123	62960
D02134	441190
D02137	23675786
D02157	656811
D02178	656829
D02181	439243
D02186	72492
D02187	11954232
D02188	73491
D02190	20933
D02191	23672568
D02196	23678596
D02198	441242
D02201	71446
D02203	23678597
D02209	656837
D02216	62998
D02221	23677831
D02222	441129
D02223	23663973
D02226	23678598
D02228	53024
D02231	23675743
D02233	5491954
D02241	470375
D02251	73246
D02267	169569
D02282	54682938
D02299	33255
D02301	4628
D02302	3374
D02305	287180
D02306	51081
D02307	119525
D02318	3948
D02336	5904
D02339	6479523
D02344	456255
D02345	441199
D02346	71476
D02348	18381
D02352	51038
D02353	47964
D02376	5479537
D02406	6410758
D02420	49787020
D02434	5336
D02436	5327
D02439	5330
D02450	20482852
D02465	23666118
D02469	60020
D02471	9588170
D02474	58258
D02475	72734323
D02495	135413535
D02496	667492
D02497	131536
D02501	6850808
D02503	23724842
D02505	23724843
D02506	11954248
D02508	33477
D02509	115235
D02516	12894
D02517	5326
D02521	8954
D02540	157690
D02541	60622
D02542	11954252
D02544	36119
D02545	3037209
D02549	6324616
D02555	468595
D02711	6410757
D02734	9822500
D02861	11954281
D02867	11954282
D02888	36273
D02889	115163
D02925	23663126
D03039	23685176
D03211	60017315
D03256	135413534
D03368	11954342
D03387	23684326
D03424	5487888
D03426	23664040
D03428	636405
D03431	6321417
D03537	73115
D03571	64706
D03640	23724878
D03656	213039
D03705	11954361
D03706	9997821
D03707	23663400
D03833	5484730
D03835	131535
D03837	131537
D03843	163296
D03865	6473883
D03895	73303
D04008	135526609
D04020	71392
D04049	23674512
D04112	193962
D04196	21319
D04253	446987
D04254	20055354
D04301	23700083
D04859	471161
D04972	54675785
D05021	656511
D05022	23685177
D05026	23724961
D05110	23675318
D05271	53297457
D05351	23724981
D05382	6918232
D05406	10250769
D05408	23668834
D05411	6869
D05461	23724987
D05520	3084732
D05521	65322
D05528	1684
D05949	15899898
D05957	20287
D05972	444022
D06057	9812715
D06064	171758
D06137	23671017
D06138	23725050
D06236	64936
D06298	21704
D06299	34768
D06300	51223
D06390	23725077
D06478	23725083
D06558	135804001
D06670	23725098
D06675	159269
D06676	54671008
D06884	54707177
D06885	54680675
D07057	441300
D07133	23668479
D07233	54686187
D07234	6713928
D07235	24892847
D07236	71807
D07237	71736
D07238	68760
D07239	3000579
D07240	68933
D07241	187764
D07242	71260
D07243	9571062
D07244	2799
D07245	19910
D07246	3001386
D07247	65720
D07248	70374
D07249	446727
D07250	71655
D07433	72144
D07452	33613
D07462	68682
D07471	148192
D07484	24892854
D07486	55185
D07487	441397
D07570	94447
D07614	20824
D07621	93184
D07626	2826718
D07629	91562
D07635	6024
D07636	30699
D07637	167441
D07638	6436055
D07639	9870843
D07640	5491577
D07641	9570757
D07643	5361871
D07644	43594
D07645	44187
D07647	5742673
D07648	43708
D07649	5479539
D07650	6335986
D07651	5281006
D07653	656575
D07654	5481173
D07656	65755
D07658	6533629
D07659	5479530
D07702	149514
D07710	178265
D07733	6098
D07735	24892866
D07782	5625
D07811	470999
D07896	135398508
D07908	150610
D07925	14052
D07965	23667629
D07995	93095
D08011	5379
D08012	9571107
D08017	44250927
D08109	47499
D08120	149096
D08143	5284585
D08185	441130
D08191	25195407
D08199	11199134
D08218	477468
D08237	152946
D08259	64143
D08268	441306
D08287	83908
D08291	189546
D08306	65028
D08307	6196
D08337	213043
D08350	272833
D08360	46174101
D08379	4831
D08380	43672
D08396	33478
D08438	92879
D08478	33042
D08479	135871123
D08480	46174110
D08483	5071
D08496	176015
D08526	15541
D08533	130313
D08534	39031
D08538	13384041
D08539	13456556
D08540	46174113
D08557	71447
D08563	24785689
D08567	11583399
D08582	3080935
D08583	197006
D08593	36921
D08605	54682461
D08644	3084396
D08654	62959
D08664	135398742
D08884	16007393
D08886	135413543
D00125	36462
D00142	126941
D00155	439693
D00161	2724350
D00168	6253
D00184	5280754
D00208	5746
D00214	2019
D00238	2265
D00248	2478
D00254	2578
D00266	2708
D00275	5702198
D00287	22420
D00288	135398738
D00341	3657
D00343	3690
D00363	3950
D00369	460612
D00420	4211
D00467	4842
D00468	163659
D00478	9703
D00491	36314
D00567	2662
D00573	16052011
D00574	2145
D00583	5453
D00584	3385
D00586	3397
D00749	3899
D00752	5281078
D00753	5497196
D00754	5426
D00960	2187
D00961	2375
D00963	60198
D00964	3902
D00965	4493
D00966	2733525
D00967	3005572
D00989	441410
D01059	91657
D01061	60837
D01064	135400182
D01068	241902
D01155	60749
D01161	104741
D01223	60953
D01244	5386
D01264	62770
D01270	2569
D01275	443939
D01363	38904
D01370	20279
D01441	123596
D01566	55361
D01747	636362
D01760	71741
D01769	43116
D01784	2577
D01790	9887054
D01831	50224
D01885	636397
D01907	30751
D01911	153751
D01935	60779
D01977	123631
D02020	656655
D02115	23678981
D02131	104747
D02165	148123
D02166	51082
D02168	60699
D02197	249332
D02214	65348
D02321	2179
D02368	60750
D02398	444000
D02494	3599
D02697	454216
D02698	23724511
D02714	23724849
D02738	16131215
D02756	451415
D02841	2123
D02908	123608
D02933	135413494
D03021	9444
D03033	71449002
D03046	23663412
D03106	82146
D03150	387447
D03546	119182
D03637	6252
D03658	3062316
D03665	451668
D03786	6918191
D03828	135413520
D03899	31703
D03961	122335
D03962	2725048
D04023	11954378
D04024	11557040
D04066	259331
D04107	6918092
D04187	107969
D04405	5311128
D04444	5818
D04645	6445540
D04687	216326
D04862	71398
D04872	5935
D04931	667490
D04988	157921
D05094	6441022
D05095	23665584
D05096	446541
D05134	3011155
D05333	23724978
D05380	11525740
D05522	134019
D05589	148121
D05602	34457
D05756	54676478
D05807	6918220
D05822	5198
D05932	29327
D06066	60751
D06067	5394
D06068	23724530
D06109	23725046
D06117	451417
D06130	457954
D06199	23725056
D06247	25074470
D06248	25074469
D06272	406563
D06304	40839
D06320	5311
D06386	9690104
D06397	23725080
D06402	6456015
D06407	3081361
D06413	16757572
D06414	11540687
D06503	135564751
D06619	72734343
D06637	5352062
D07071	20055482
D07085	77082
D07100	114897
D07252	65702
D07253	9882105
D07254	6235
D07255	104799
D07256	16058
D07257	39562
D07258	5351154
D07259	50225
D07260	11273
D07261	65944
D07455	135409400
D07472	135410875
D07501	65628
D07567	137
D07671	4033
D07760	2907
D07772	135565662
D07776	30323
D07866	148124
D07901	41867
D07907	11954379
D07966	657237
D07974	46174081
D08032	55362
D08062	42890
D08066	5291
D08086	60838
D08108	208908
D08113	3911
D08173	9927978
D08204	157922
D08224	4212
D08276	39214
D08386	3086415
D08423	4915
D08524	216239
D08552	5329102
D08559	2733526
D08603	2723601
D08618	60700
D08620	3005573
D08649	25080282
D08675	241903
D08679	5978
D08680	5311497
D08854	3035016
D08901	16136245
D08914	17755248
D08953	644241
D08956	285033
D08971	65015
D09032	46174139
D09033	6918486
D09654	9937618
D09724	10184653
D09733	15606394
D00120	1548887
D00127	54676228
D00132	3825
D00151	4044
D00158	23677829
D00169	23663959
D00224	135401907
D00241	2284
D00250	1548943
D00268	2717
D00314	23894
D00315	3308
D00330	3394
D00402	4107
D00425	4409
D00449	5342
D00452	5359
D00463	4614
D00475	4911
D00492	27350
D00496	5852
D00510	4781
D00568	5090
D00570	6167
D00755	9469
D00758	47320
D00759	62886
D00760	60168
D00763	5281080
D00764	65332
D00765	441351
D00766	22475
D00767	39764
D00768	2576
D00771	2733
D00772	22576
D00774	83823
D00776	114869
D00813	84003
D00939	23681107
D00941	60342
D00942	4194514
D00968	64747
D00969	54677470
D00991	6104
D00992	11954225
D01049	4495
D01056	2333
D01183	610479
D01206	134018
D01215	23724793
D01252	30951
D01271	2466
D01289	5362
D01305	35455
D01325	5468
D01338	3747
D01344	3335
D01437	4487
D01475	3395
D01507	92965
D01513	2097
D01545	71771
D01567	3824
D01581	3371
D01582	1981
D01594	2313
D01671	123698
D01675	3332
D01765	5282193
D01767	54677971
D01809	656604
D01823	5632
D01824	4770
D01841	26436
D01866	54690031
D01968	121586
D01975	28871
D02064	165542
D02207	23422
D02274	9568637
D02275	656867
D02285	60936
D02290	23706216
D02292	6172
D02341	4037
D02347	6914273
D02350	3342
D02355	5509
D02373	3305
D02595	4059
D02709	119607
D02966	26098
D03080	39941
D03234	11954322
D03254	27881
D03544	23724874
D03545	25419
D03710	123619
D03714	151166
D03715	39912
D03716	119828
D03717	15895902
D03718	11954362
D04102	35375
D04334	439213
D04435	9434
D04486	23663991
D04530	3718
D05078	72106
D05319	104811
D05511	54723875
D05512	6436090
D05513	54687412
D05515	35935
D05638	31508
D06072	60712
D06073	23663989
D06378	23649597
D06379	23725076
D06382	23663418
D06388	1548942
D07119	2088
D07262	16639
D07263	6443874
D07264	19161
D07265	68706
D07266	33675
D07267	65679
D07268	68704
D07269	667550
D07270	26248
D07271	10239
D07272	24892848
D07273	6321422
D07274	7186
D07275	25803
D07276	9915886
D07277	25215
D07278	135445058
D07279	68953
D07280	8593
D07281	4674
D07503	24892855
D07549	24892856
D07564	24892858
D07720	31195
D07758	2895
D07898	3236
D07953	9470
D08022	91431
D08023	46174089
D08056	60852
D08063	1550874
D08102	9843941
D08103	23684815
D08104	3826
D08142	46174093
D08162	4038
D08265	2734755
D08267	2734756
D08275	4488
D08324	4641
D08330	92173
D08363	112362
D08364	46174103
D08418	4904
D08419	71595
D08427	4921
D08468	9806615
D08484	5245
D08521	46174112
D08599	60937
D08611	5487
D08617	5511
D08655	64645
D08689	68740
D09568	9884642
D00020	6305
D00057	13804
D00058	119
D00059	6047
D00102	948
D00110	122142
D00130	3059
D00131	3117
D00136	3559
D00217	1983
D00225	2118
D00228	2170
D00252	2554
D00265	2707
D00267	2712
D00270	2726
D00280	2802
D00283	135398737
D00293	3016
D00304	23663956
D00308	3168
D00311	3261
D00320	3345
D00326	3386
D00329	3393
D00332	3446
D00338	31640
D00354	3878
D00365	3958
D00370	5391
D00373	5452
D00374	941651
D00375	4060
D00376	4064
D00387	5556
D00388	23677832
D00390	5568
D00392	5576
D00394	5584
D00399	3121
D00403	72287
D00404	6476
D00415	60857
D00426	5073
D00428	5161
D00430	5193
D00451	5358
D00454	135398745
D00457	4999
D00458	5281025
D00464	4616
D00470	4890
D00474	4909
D00479	5281032
D00482	15424
D00484	6603149
D00487	7550
D00493	4917
D00495	8280
D00498	441278
D00499	4737
D00500	23676152
D00502	47812
D00503	4748
D00504	4753
D00505	61100
D00506	4763
D00508	6839
D00512	1775
D00514	5311068
D00524	5831
D00525	5910
D00528	2519
D00530	5719
D00531	4506
D00532	3487
D00533	34312
D00535	5665
D00536	3331
D00537	5284627
D00538	5734
D00539	3291
D00542	3562
D00543	3226
D00544	4116
D00545	3763
D00546	42113
D00547	5206
D00548	667484
D00549	4943
D00550	4192
D00553	4906
D00555	2164
D00556	6009
D00557	6292
D00559	166589
D00560	16362
D00561	60149
D00563	4205
D00569	4754
D00661	83927
D00670	5741
D00672	91513
D00674	60875
D00675	77997
D00676	59772
D00679	11954223
D00681	5281073
D00693	9916
D00694	23706210
D00695	14434
D00696	43032
D00698	6464
D00700	8271
D00701	23674889
D00702	36431
D00704	5281077
D00705	31264
D00706	441338
D00708	3292
D00709	5284583
D00710	16760703
D00711	15851
D00712	23690443
D00714	23665410
D00732	441348
D00735	68304
D00737	9796823
D00738	66070
D00744	4723
D00775	5070
D00777	64150
D00778	8584
D00779	2381
D00781	5281081
D00782	207841
D00784	68727
D00785	26758
D00786	4659569
D00787	66007
D00788	5281082
D00789	6240
D00790	667467
D00791	67356
D00792	3389
D00793	3388
D00794	71399
D00795	36207
D00796	9883259
D00797	5887
D00798	66062
D00799	66064
D00800	66069
D00801	11125
D00809	11065
D00811	68539
D00812	65327
D00814	6419921
D00815	8228
D00816	441358
D00817	62884
D00818	71478
D00819	54911
D00820	62935
D00821	62923
D00822	77995
D00823	62857
D00824	9560989
D00825	63009
D00826	23724784
D00835	64762
D00836	3033050
D00837	5462346
D00838	3033053
D00839	5462347
D00842	6321225
D00843	5360733
D00845	65494
D00846	5748525
D00847	5462350
D00993	4039
D00995	8246
D00998	5824
D01000	11548
D01001	8288
D01044	5281881
D01071	3608
D01096	25096
D01101	2448
D01105	443870
D01107	163701
D01110	25381
D01116	14130
D01118	122824
D01150	4162
D01164	60795
D01177	60814
D01179	60834
D01190	72060
D01205	6918081
D01219	4640
D01226	5355
D01228	27522
D01230	3380
D01243	92163
D01245	2441
D01253	2789
D01254	5502
D01267	3360
D01268	2816
D01285	33611
D01287	117965
D01292	4041
D01293	3299
D01295	1547484
D01296	9280
D01303	5282407
D01310	14148199
D01314	443945
D01321	5736
D01328	2811
D01351	3474
D01354	3369
D01355	63013
D01358	68551
D01371	443955
D01372	5735
D01380	3778
D01382	4099
D01383	5750
D01391	2447
D01399	13810
D01408	37368
D01412	5282417
D01447	92178
D01448	5282418
D01450	5282419
D01453	64119
D01465	5282422
D01466	3282
D01477	71587
D01481	5493302
D01482	11705034
D01485	4747
D01514	3307
D01520	11954230
D01522	5702214
D01537	128918
D01546	6420022
D01548	23724802
D01592	198334
D01597	16351
D01630	4938
D01657	13314
D01740	2294
D01744	2451
D01750	3686
D01762	23674183
D01772	3283
D01776	2206
D01787	5356
D01793	43962
D01807	6151
D01811	5147
D01832	4236
D01860	167166
D01871	71177
D01876	66008
D01883	2196
D01898	52919
D01901	23991
D01902	25715
D01914	4843
D01930	104902
D01939	60853
D01973	656631
D02022	125791
D02037	6444477
D02068	2723754
D02074	6055
D02078	5825
D02095	5485201
D02096	56338
D02097	91274
D02100	656685
D02102	14184
D02103	23679632
D02111	656697
D02160	14190
D02162	5282478
D02163	5282479
D02173	121587
D02182	23724835
D02200	5909
D02208	3082221
D02211	71171
D02227	441277
D02236	5282483
D02242	66124
D02243	19379
D02246	92151
D02247	197083
D02248	5282484
D02252	23689390
D02253	656845
D02260	5282487
D02271	5492889
D02340	3964
D02357	9681
D02360	68617
D02361	4940
D02362	43815
D02408	5282318
D02536	11954251
D02558	6918078
D02559	34521
D02561	4235
D02562	3052775
D02565	94280
D02566	4011
D02567	146571
D02570	6918664
D02572	71424
D02573	127150
D02574	54840
D02575	68870
D02578	82148
D02579	3748
D02580	3759
D02599	9568
D02604	6420038
D02608	11983191
D02609	91499
D02611	11226
D02612	11954259
D02613	5311507
D02618	6473
D02619	6488
D02621	15139
D02622	4830
D02623	4249
D02624	969472
D02625	5567
D02626	156321
D02627	16363
D02629	3396
D02630	33630
D02642	12598
D02643	6433234
D02671	4078
D02680	37767
D02682	54477
D02683	60678
D02689	208902
D02716	5486971
D02717	20140
D02766	71113
D02770	37632
D02771	42611
D02780	155434
D02787	2081
D02817	5842
D02824	123606
D02825	123607
D02941	8944
D02942	31338
D02991	32169
D02995	6917875
D03089	66275
D03102	68643
D03197	5361092
D03199	11954319
D03264	11954326
D03274	6431825
D03276	11954330
D03365	89594
D03528	36605
D03556	5311507
D03562	23691043
D03711	30843
D03721	154100
D03731	26757
D03740	5826
D03783	23724882
D03785	10188
D03822	77991
D03825	5492624
D03852	159600
D03975	10715
D04034	23724898
D04038	23724899
D04048	6918111
D04087	20055089
D04088	6337
D04095	37497
D04105	65472
D04127	1727
D04147	102710
D04226	6435335
D04257	3038497
D04264	152943
D04292	9651
D04314	55190
D04605	21722
D04650	33746
D04716	15130
D04741	3932
D04747	11597697
D04749	2724118
D04750	168937
D04765	30667
D04882	12207008
D04905	181458
D04924	65483
D04965	74835
D04985	9034
D04999	4158
D05028	5384200
D05039	4199
D05040	33254
D05113	5360515
D05133	155290
D05156	2735102
D05200	5358907
D05290	6516816
D05312	5284603
D05339	115237
D05340	23724979
D05374	62878
D05375	9845306
D05462	23724988
D05478	657349
D05523	27400
D05575	119570
D05592	3050410
D05593	51711
D05621	44115
D05623	14591
D05626	15004
D05740	19610426
D05768	59227
D05775	129228
D05928	5311454
D05938	41693
D06007	9838022
D06147	71393
D06168	6918013
D06282	9906942
D06327	128919
D06338	166973
D06339	66376
D06367	6420041
D06573	6918474
D06623	135566032
D06887	8275
D07058	71158
D07065	6077
D07122	51263
D07132	644073
D07282	104845
D07283	182137
D07284	22379
D07285	5362460
D07286	5462328
D07287	92943
D07288	9331
D07289	61791
D07290	68093
D07291	21102
D07292	68749
D07293	37425
D07294	68865
D07295	65697
D07296	20055352
D07297	65594
D07298	71196
D07299	219078
D07300	10391
D07301	102669
D07302	30160
D07303	198068
D07304	23497
D07305	4850
D07306	68778
D07307	62865
D07308	65750
D07309	15387
D07310	2159
D07311	47979
D07312	688272
D07313	14670
D07314	40391
D07315	37367
D07316	10240
D07317	6526
D07318	6257
D07319	219095
D07320	135413553
D07321	72135
D07322	5284636
D07323	5838
D07324	17336
D07325	19094
D07326	3033860
D07327	38668
D07328	3033621
D07329	4994
D07330	10783
D07331	9661
D07332	6494
D07333	71919
D07335	34870
D07336	93154
D07337	4472
D07338	19063
D07339	439280
D07340	432824
D07341	36109
D07342	68888
D07343	14584
D07344	135436543
D07345	3351
D07346	4626
D07347	65782
D07348	3033226
D07349	657272
D07350	1995
D07441	2130
D07445	3007
D07448	2160
D07468	32170
D07473	54841
D07511	1201549
D07522	2366
D07528	2377
D07552	2474
D07589	3030419
D07591	444
D07593	2477
D07601	21772
D07603	6241
D07667	83898
D07678	8612
D07685	71829
D07686	24892861
D07687	24892862
D07704	2771
D07705	3020376
D07725	15850
D07727	2801
D07734	6444556
D07756	24892868
D07757	24892869
D07777	7902
D07778	71125
D07779	19265
D07791	2995
D07793	125017
D07804	24835791
D07806	154101
D07808	92942
D07809	10100
D07810	9844225
D07812	9419
D07831	5284543
D07832	46174078
D07836	159729
D07837	10531
D07838	3037136
D07854	3089
D07865	17182
D07869	3152
D07872	5282426
D07875	667477
D07880	60835
D07881	3180
D07887	77993
D07913	146570
D07930	135413552
D07938	11984562
D07944	19527
D07971	941361
D07976	10415975
D07977	3372
D07978	53276
D07979	18608234
D07984	5324346
D07993	56339
D07997	77992
D08035	16051968
D08047	5284570
D08054	3658
D08070	3696
D08071	24904
D08085	9367
D08098	3821
D08100	10101
D08101	80069
D08116	92253
D08130	11597698
D08133	3028194
D08134	3474584
D08135	82050
D08136	23684902
D08137	66320
D08140	3947
D08141	30668
D08145	6917853
D08148	71400
D08157	4019
D08170	896
D08171	25382
D08172	9926325
D08174	4054
D08181	4062
D08182	41049
D08187	10836
D08190	522325
D08195	4095
D08209	4167
D08216	4184
D08222	65833
D08226	23897
D08233	5288826
D08234	5359380
D08235	4257
D08246	5311304
D08255	4440
D08257	4449
D08258	4450
D08261	4456
D08273	5491665
D08280	4514
D08283	2997
D08288	4543
D08297	9417
D08312	6434185
D08339	47811
D08341	62873
D08342	62871
D08343	4058
D08349	3675
D08356	46174100
D08376	46174106
D08385	62867
D08390	9938006
D08397	168993
D08405	51712
D08425	4919
D08426	3290
D08430	4926
D08434	108082
D08439	5702109
D08446	14669
D08447	4976
D08456	5002
D08469	3052776
D08472	127151
D08473	60815
D08485	5078
D08489	5095
D08490	175805
D08549	5357
D08555	1935
D08575	6018
D08585	9429
D08588	60648
D08589	23663953
D08590	5467
D08597	30131
D08606	104903
D08623	33741
D08625	441233
D08626	5533
D08634	5563
D08636	5566
D08637	16361
D08638	5572
D08653	198067
D08667	86480
D08669	170361
D08670	5656
D08673	5666
D08674	177158
D08687	60854
D08690	5732
D08691	6436640
D08692	6450333
D08693	6433208
D09215	9881504
D09216	6762
D09569	121892
D00134	2082
D00236	74989
D00360	727
D00368	4030
D00436	4477
D00460	4612
D00471	4891
D00486	5281033
D00488	4993
D00489	54680693
D00534	4004
D00582	53297348
D00750	27944
D00803	15432
D00805	5853
D00806	5281086
D00807	4837
D00808	8514
D00828	21022
D00831	65329
D00832	10311
D00833	6842999
D00834	8813
D01138	2345
D01393	443965
D01663	53297453
D02114	12947
D02125	64927
D02126	6135
D02127	656703
D02145	8905
D02261	2723885
D02262	61367
D02366	2719
D02379	4284
D02387	443381
D02448	65404
D02466	64646
D02472	11954242
D02480	19529
D02481	452191
D02482	16394563
D02483	68911
D02484	6450800
D02485	37392
D02486	41684
D02487	9570076
D02489	31593
D02548	6239
D02922	2165
D03469	83820
D03623	35803
D03985	3068143
D04140	3334
D04200	35802
D04895	40692
D05170	6093
D05443	40326
D05486	23724991
D05657	6434144
D05681	54723876
D06051	21723
D06114	5455
D06224	21952
D06238	5583
D06239	54949
D07106	83969
D07351	65592
D07352	23009
D07353	71815
D07354	71819
D07355	65718
D07356	8414
D07357	68199
D07359	6764
D07360	19646
D07361	72416
D07362	456410
D07364	50248
D07365	8238
D07366	10404
D07367	3036
D07368	83975
D07438	23673836
D07530	11442
D07680	91441
D07761	104926
D07763	2912
D07785	40585
D07825	3052
D07844	11367
D08033	37393
D08050	3652
D08114	26879
D08179	237
D08357	4767
D08381	120181
D08420	4908
D08428	6178111
D08451	708857
D08460	8549
D08461	53297459
D08551	162841
D00074	145068
D00175	193653
D00195	5362471
D00221	12035
D00227	9433
D00234	2247
D00242	7699
D00324	11954221
D00337	3516
D00364	3957
D00371	2153
D00411	5717
D00485	9581
D00521	5405
D00527	50295
D00529	23663996
D00659	54360
D00662	5281066
D00663	5281067
D00664	55182
D00665	5281068
D00668	5281070
D00671	63002
D00683	39859
D00684	35329
D00685	441333
D00686	171674
D00687	56801
D00688	441334
D00691	3182
D00743	11079
D00756	5282385
D00757	5282386
D00848	5462351
D01016	4875
D01021	82332
D01022	66259
D01023	10648
D01036	275196
D01106	73356
D01117	65906
D01123	2449
D01130	5282398
D01172	66063
D01174	5282139
D01192	5282402
D01224	62943
D01260	90010
D01288	443942
D01317	173612
D01324	4066
D01332	5282408
D01336	5282409
D01347	443950
D01349	68658
D01360	5702273
D01362	5702285
D01373	5282416
D01385	3671
D01389	83813
D01427	167811
D01430	5483
D01459	23662354
D01478	3191
D01479	108013
D01490	161602
D01495	9892792
D01506	6321259
D01569	163446
D01576	9936727
D01608	92876
D01609	161104
D01627	71640
D01635	9859211
D01700	23672302
D01703	6918155
D01712	23675769
D01713	157313
D01717	54384
D01771	4977
D01773	4615
D01778	5702220
D01782	5284472
D01786	22529
D01872	64648
D01929	72734320
D01946	656616
D01957	2310
D01978	656634
D02017	656652
D02023	203585
D02089	65463
D02090	71473
D02101	6321303
D02148	11290
D02151	5606
D02172	20845981
D02205	23724836
D02212	16738693
D02230	167261
D02234	11954233
D02245	441236
D02327	11224
D02354	5440
D02396	325003
D02404	656601
D02610	11954258
D02732	11979774
D02760	5284514
D02822	6918543
D02884	21850
D02950	158798
D03051	68549
D03166	15736
D03184	28891
D03402	36975
D03557	2805
D03580	21155870
D03585	452110
D03621	6726
D03622	6420019
D03693	124087
D03704	6433334
D03725	23724881
D03742	5360696
D03888	43814
D03898	50942
D04080	9363
D04089	21721
D04163	68626
D04214	23724908
D04441	3610
D04625	3762
D04979	14677
D04980	14676
D05006	68629
D05037	23724963
D05129	50294
D05130	68731
D05277	9919001
D05366	23724982
D05429	16218860
D05484	22425
D05649	9802673
D05718	3032600
D05730	71409
D05744	449193
D05792	5152
D06103	91268
D06104	23663537
D06107	20316
D06393	1080
D07062	6453414
D07125	5574
D07126	33887
D07370	7608
D07371	5603
D07372	71899
D07373	34154
D07374	210320
D07375	65787
D07376	1549158
D07377	54766
D07378	28329
D07379	122553
D07380	68707
D07381	54120
D07382	3047787
D07383	65632
D07384	10090
D07385	5311356
D07386	11508377
D07387	13738
D07388	85001
D07389	31796
D07390	36910
D07391	208903
D07392	120508
D07393	3169
D07394	71195
D07395	35949
D07396	3047788
D07397	10610
D07398	2725
D07399	65624
D07400	68122
D07401	19396
D07402	1549000
D07403	5284614
D07404	16576
D07405	72145
D07406	4822
D07407	133017
D07408	5497
D07409	5917
D07410	65687
D07442	2132
D07458	2200
D07459	17275
D07482	19861
D07483	2267
D07489	54765
D07491	16229
D07512	2326
D07534	35330
D07542	2442
D07543	6834
D07547	6729
D07554	23678798
D07557	24892857
D07594	28892
D07617	2564
D07618	23674719
D07662	2678
D07713	2783
D07716	26937
D07721	2795
D07740	24892867
D07765	2913
D07790	16575
D07803	33036
D07847	3078
D07848	6602336
D07850	10609
D07862	3103
D07873	3156
D07878	3162
D07900	3241
D07902	3245
D07923	28328
D07929	5359271
D07949	3344
D07958	3348
D07990	3410
D08039	3609
D08045	5284569
D08046	12358607
D08088	6481
D08105	3827
D08117	54385
D08118	9955977
D08119	65859
D08161	22530
D08163	4034
D08229	5281040
D08253	4436
D08293	5281071
D08300	4086
D08310	4619
D08316	264891
D08317	6431771
D08322	4636
D08334	2562
D08335	121315
D08353	11291
D08355	4761
D08368	10297
D08387	4845
D08408	4887
D08417	120507
D08424	4916
D08449	7028
D08474	25654
D08497	6449107
D08520	91463
D08570	5403
D08578	5419
D08579	12443397
D08604	5484
D08624	5524
D08629	65772
D08648	5282443
D08658	13022715
D08684	5709
D09318	6918554
D09319	9827599
D09570	185460
D00043	5936
D00196	5983
D00218	1986
D00356	5311221
D00391	6256
D00397	5593
D00518	3038
D00652	68844
D00653	6918132
D00655	4100
D00667	5965
D00871	6419954
D00999	6060
D01002	22162
D01004	6419941
D01008	51763
D01025	5284409
D01037	3515
D01089	7628
D01162	11980904
D01196	13290219
D01261	16850
D01452	5282175
D01512	38286
D01578	4888
D01689	444025
D01724	62667
D01733	111332
D01802	636371
D01821	171808
D01964	5282226
D02024	10608
D02070	10429215
D02075	23669592
D02076	54405
D02081	656682
D02193	10547
D02249	5282485
D02289	247839
D02349	3105
D02374	31477
D02418	657348
D02512	21653
D02706	23665552
D02724	5311027
D02750	1979
D02842	62668
D03163	11954316
D03243	11954323
D03648	6917787
D03826	6419928
D03945	8759
D03946	6144
D03947	9008
D04244	289085
D04760	40915
D04762	11192129
D05143	151075
D05762	23725009
D05763	23725011
D05872	23663426
D05947	5320
D06274	9868491
D07411	62858
D07412	8281
D07414	16683103
D07415	5748610
D07461	2216
D07496	2309
D07540	2435
D07541	60726
D07759	2905
D07775	3033538
D07840	439369
D07871	5284549
D07890	3219
D08115	39468
D08139	44564
D08147	9865442
D08219	3037206
D08440	2723816
D08448	4935
D08661	5311236
D08872	10224595
D00003	977
D00004	280
D00014	124886
D00019	6137
D00052	6049
D00083	947
D00167	3080
D00176	638678
D00226	148139
D00410	4174
D00469	135445761
D00517	8053
D00571	6093170
D00697	3373
D00707	3406
D01013	23672589
D01014	3735
D01015	23671932
D01060	5384
D01091	61475
D01099	25229
D01137	60714
D01181	65985
D01186	62881
D01187	67412
D01200	4766
D01211	135403647
D01258	3737
D01311	443944
D01312	35740
D01313	18377
D01340	5464092
D01346	2329
D01376	3723
D01388	3740
D01421	443971
D01474	3724
D01555	3741
D01563	2723854
D01570	443997
D01572	135410029
D01631	9853654
D01644	14457
D01645	60754
D01646	444013
D01707	55466
D01714	3738
D01719	3731
D01729	135326
D01755	4949
D01761	3742
D01774	3739
D01797	65492
D01817	3730
D01843	450503
D01880	23675747
D01884	541384
D01893	3736
D01936	65430
D01940	23667634
D01979	29182
D01983	159247
D01999	656642
D02006	71435
D02007	5282469
D02015	8566
D02025	68726
D02029	157443
D02036	23677830
D02108	3081912
D02161	3743
D02210	6282
D02240	2140
D02259	71368
D02284	11954234
D02312	104827
D02402	72170
D02409	23669229
D02457	6806
D03308	71184
D03355	6918037
D03442	16129675
D03443	16158172
D03603	23667529
D03669	214348
D03670	2973
D03730	71384
D03768	23672587
D03770	23664887
D03902	119297
D03943	6096880
D03944	2724209
D04220	56494
D04283	197281
D04284	153921
D04286	23724913
D04288	9961939
D04291	439357
D04357	66274
D04420	23987
D04445	65513
D04559	23724923
D04560	23724924
D04562	23620992
D04563	27648
D04567	450510
D04568	23667636
D04570	23663553
D04571	23724925
D04572	23724927
D04573	23620848
D04574	65437
D04577	17477
D04582	56016
D04586	21751
D04595	23724931
D04596	23724933
D04598	20055342
D04599	23688359
D04604	14381
D04656	66380
D04667	176168
D04715	135500522
D04848	160036
D04983	876
D05019	23724959
D05215	135566074
D05328	11954386
D05421	23724985
D05436	12675
D05439	9873
D05590	135476791
D05647	61711
D05795	9810246
D05845	9833444
D05860	23690531
D05865	23668193
D05870	71180
D05940	6918584
D05962	17358
D06027	23725037
D06029	6093445
D06030	23725039
D06034	23725040
D06039	11441509
D06042	23725041
D06890	2148
D06891	24757947
D07416	2972
D07418	34536
D07420	15814656
D07780	62880
D07807	6918223
D07852	22173
D07934	6109
D07935	46174079
D08005	46174086
D08006	157429
D08008	46174087
D08018	18177388
D08025	46174090
D08084	23620195
D08247	5284595
D08248	5484366
D08249	5284596
D08262	46174095
D08504	164133
D08512	3085017
D08548	5345
D09213	23662381
D00446	
D01066	
D01239	
D02049	
D02138	
D02316	
D02324	
D03609	
D07067	
D07746	
D08260	
D08401	
D00060	
D02047	
D06539	
D06540	
D06541	
D07510	
D02268	
D02690	
D05428	
D06535	
D06536	
D06537	
D07955	
D00857	
D00863	
D01063	
D02143	
D06526	
D06527	
D06542	
D08043	
D08399	
D06425	
D00101	
D02983	
D00135	
D00344	
D02065	
D02136	
D02142	
D02297	
D05908	
D07607	
D08527	
D08528	
D01695	
D02106	
D02177	
D02747	
D02748	
D03229	
D06488	
D07434	
D07535	
D00080	
D00237	
D04078	
D00253	
D02135	
D02153	
D02154	
D02155	
D02175	
D03288	
D00804	
D02491	
D07358	
D07363	
D01536	
D02133	
D02021	
D03263	
D05189	
D06049	
D06178	
D06179	
